\BOOKMARK [1][-]{section.1}{Aufgabenstellung}{}% 1
\BOOKMARK [1][-]{section.2}{Problem-Analyse}{}% 2
\BOOKMARK [2][-]{subsubsection.2.0.1}{Methodenplan}{section.2}% 3
\BOOKMARK [2][-]{subsection.2.1}{L\366sungswege}{section.2}% 4
\BOOKMARK [3][-]{subsubsection.2.1.1}{ANN-Lernverfahren}{subsection.2.1}% 5
\BOOKMARK [3][-]{subsubsection.2.1.2}{Programmierung}{subsection.2.1}% 6
\BOOKMARK [2][-]{subsection.2.2}{Nutzwertanalysen}{section.2}% 7
\BOOKMARK [3][-]{subsubsection.2.2.1}{Entscheidungsvarianten}{subsection.2.2}% 8
\BOOKMARK [3][-]{subsubsection.2.2.2}{Definition von Bewertungskriterien}{subsection.2.2}% 9
\BOOKMARK [3][-]{subsubsection.2.2.3}{Gewichtung der Bewertungskriterien}{subsection.2.2}% 10
\BOOKMARK [3][-]{subsubsection.2.2.4}{Festlegung des Bewertungsma\337stabes}{subsection.2.2}% 11
\BOOKMARK [3][-]{subsubsection.2.2.5}{Punktevergabe}{subsection.2.2}% 12
\BOOKMARK [3][-]{subsubsection.2.2.6}{Summierung der Auswahl}{subsection.2.2}% 13
\BOOKMARK [1][-]{section.3}{Testplan}{}% 14
\BOOKMARK [1][-]{section.4}{Grobdesign}{}% 15
\BOOKMARK [2][-]{subsection.4.1}{Trainingsteil}{section.4}% 16
\BOOKMARK [1][-]{section.5}{Aufwand-Sch\344tzung}{}% 17
\BOOKMARK [2][-]{subsection.5.1}{Projektplanung}{section.5}% 18
\BOOKMARK [2][-]{subsection.5.2}{Programmierung}{section.5}% 19
\BOOKMARK [1][-]{section.6}{Zeitplan}{}% 20
\BOOKMARK [1][-]{section.7}{Kostenkalkulation, Kostenvorschlag}{}% 21
\BOOKMARK [1][-]{section.8}{Schritt f\374r Schritt zum neuronalen Netz}{}% 22
