\relax 
\providecommand\hyper@newdestlabel[2]{}
\providecommand*\new@tpo@label[2]{}
\providecommand\HyperFirstAtBeginDocument{\AtBeginDocument}
\HyperFirstAtBeginDocument{\ifx\hyper@anchor\@undefined
\global\let\oldcontentsline\contentsline
\gdef\contentsline#1#2#3#4{\oldcontentsline{#1}{#2}{#3}}
\global\let\oldnewlabel\newlabel
\gdef\newlabel#1#2{\newlabelxx{#1}#2}
\gdef\newlabelxx#1#2#3#4#5#6{\oldnewlabel{#1}{{#2}{#3}}}
\AtEndDocument{\ifx\hyper@anchor\@undefined
\let\contentsline\oldcontentsline
\let\newlabel\oldnewlabel
\fi}
\fi}
\global\let\hyper@last\relax 
\gdef\HyperFirstAtBeginDocument#1{#1}
\providecommand\HyField@AuxAddToFields[1]{}
\providecommand\HyField@AuxAddToCoFields[2]{}
\@writefile{toc}{\contentsline {section}{\numberline {1}Aufgabenstellung}{2}{section.1}}
\@writefile{toc}{\contentsline {section}{\numberline {2}Problem-Analyse}{3}{section.2}}
\@writefile{toc}{\contentsline {subsubsection}{\numberline {2.0.1}Methodenplan}{3}{subsubsection.2.0.1}}
\@writefile{toc}{\contentsline {subsection}{\numberline {2.1}L\IeC {\"o}sungswege}{3}{subsection.2.1}}
\@writefile{toc}{\contentsline {subsubsection}{\numberline {2.1.1}ANN-Lernverfahren}{3}{subsubsection.2.1.1}}
\@writefile{toc}{\contentsline {subsubsection}{\numberline {2.1.2}Programmierung}{5}{subsubsection.2.1.2}}
\@writefile{toc}{\contentsline {subsection}{\numberline {2.2}Nutzwertanalysen}{5}{subsection.2.2}}
\@writefile{toc}{\contentsline {subsubsection}{\numberline {2.2.1}Entscheidungsvarianten}{5}{subsubsection.2.2.1}}
\@writefile{toc}{\contentsline {subsubsection}{\numberline {2.2.2}Definition von Bewertungskriterien}{5}{subsubsection.2.2.2}}
\@writefile{toc}{\contentsline {subsubsection}{\numberline {2.2.3}Gewichtung der Bewertungskriterien}{5}{subsubsection.2.2.3}}
\@writefile{toc}{\contentsline {subsubsection}{\numberline {2.2.4}Festlegung des Bewertungsma\IeC {\ss }stabes}{5}{subsubsection.2.2.4}}
\@writefile{toc}{\contentsline {subsubsection}{\numberline {2.2.5}Punktevergabe}{6}{subsubsection.2.2.5}}
\@writefile{toc}{\contentsline {subsubsection}{\numberline {2.2.6}Summierung der Auswahl}{8}{subsubsection.2.2.6}}
\newlabel{my-label}{{2.2.6}{8}{Summierung der Auswahl}{subsubsection.2.2.6}{}}
\@writefile{toc}{\contentsline {section}{\numberline {3}Testplan}{9}{section.3}}
\@writefile{toc}{\contentsline {section}{\numberline {4}Grobdesign}{10}{section.4}}
\@writefile{toc}{\contentsline {subsection}{\numberline {4.1}Trainingsteil}{10}{subsection.4.1}}
\@writefile{toc}{\contentsline {section}{\numberline {5}Aufwand-Sch\IeC {\"a}tzung}{10}{section.5}}
\@writefile{toc}{\contentsline {subsection}{\numberline {5.1}Projektplanung}{10}{subsection.5.1}}
\@writefile{toc}{\contentsline {subsection}{\numberline {5.2}Programmierung}{10}{subsection.5.2}}
\@writefile{toc}{\contentsline {section}{\numberline {6}Zeitplan}{11}{section.6}}
\@writefile{toc}{\contentsline {section}{\numberline {7}Kostenkalkulation, Kostenvorschlag}{11}{section.7}}
\@writefile{toc}{\contentsline {section}{\numberline {8}Schritt f\IeC {\"u}r Schritt zum neuronalen Netz}{11}{section.8}}
\global\@namedef{scr@dte@section@lastmaxnumwidth}{10.84047pt}
\global\@namedef{scr@dte@subsection@lastmaxnumwidth}{18.37163pt}
\global\@namedef{scr@dte@subsubsection@lastmaxnumwidth}{26.8883pt}
